#define close_width 24
#define close_height 24
static char close_bits[] = {
  0x00, 0x00, 0x00, 0x00, 0x00, 0x00, 0x08, 0x00, 0x10, 0x1C, 0x00, 0x38, 
  0x38, 0x00, 0x1C, 0x70, 0x00, 0x0E, 0xE0, 0x00, 0x07, 0xC0, 0x81, 0x03, 
  0x80, 0xC3, 0x01, 0x00, 0xE7, 0x00, 0x00, 0x7E, 0x00, 0x00, 0x3C, 0x00, 
  0x00, 0x3C, 0x00, 0x00, 0x7E, 0x00, 0x00, 0xE7, 0x00, 0x80, 0xC3, 0x01, 
  0xC0, 0x81, 0x03, 0xE0, 0x00, 0x07, 0x70, 0x00, 0x0E, 0x38, 0x00, 0x1C, 
  0x1C, 0x00, 0x38, 0x08, 0x00, 0x10, 0x00, 0x00, 0x00, 0x00, 0x00, 0x00, 
  };
